# Blender v2.83.0 OBJ File: ''
# www.blender.org
mtllib hdr_globe.mtl
o Sphere
v 0.000000 880.332886 -187.120529
v 0.000000 728.115295 -529.006714
v 0.000000 602.217529 -668.830383
v 0.000000 449.999969 -779.422913
v 0.000000 278.115265 -855.950867
v 0.000000 94.075577 -895.069702
v 0.000000 -94.075661 -895.069702
v 0.000000 -278.115326 -855.950806
v 0.000000 -450.000061 -779.422852
v 0.000000 -602.217590 -668.830322
v 0.000000 -728.115356 -529.006653
v 0.000000 -822.190918 -366.062927
v 0.000000 -880.332886 -187.120453
v 38.904564 880.332886 -183.031494
v 76.108795 822.190857 -358.063629
v 109.986702 728.115295 -517.446655
v 139.057678 602.217529 -654.214844
v 162.051163 449.999969 -762.390686
v 177.962219 278.115265 -837.246338
v 186.095474 94.075577 -875.510315
v 186.095474 -94.075661 -875.510315
v 177.962204 -278.115326 -837.246277
v 162.051147 -450.000061 -762.390625
v 139.057663 -602.217590 -654.214783
v 109.986687 -728.115356 -517.446594
v 76.108780 -822.190918 -358.063568
v 38.904545 -880.332886 -183.031433
v 76.108810 880.332886 -170.943100
v 148.891281 822.190857 -334.415161
v 215.166458 728.115295 -483.271698
v 272.037872 602.217529 -611.006958
v 317.019928 449.999969 -712.038330
v 348.146637 278.115265 -781.950073
v 364.057709 94.075577 -817.686951
v 364.057709 -94.075661 -817.686951
v 348.146637 -278.115326 -781.950012
v 317.019928 -450.000061 -712.038269
v 272.037872 -602.217590 -611.006897
v 215.166428 -728.115356 -483.271637
v 148.891251 -822.190918 -334.415131
v 76.108780 -880.332886 -170.943054
v 109.986740 880.332886 -151.383667
v 215.166489 822.190857 -296.151154
v 310.942413 728.115295 -427.975433
v 393.128723 602.217529 -541.095154
v 458.133423 449.999969 -630.566406
v 503.115417 278.115265 -692.478882
v 526.108887 94.075577 -724.126709
v 526.108887 -94.075661 -724.126709
v 503.115387 -278.115326 -692.478760
v 458.133392 -450.000061 -630.566345
v 393.128723 -602.217590 -541.095093
v 310.942383 -728.115356 -427.975372
v 215.166458 -822.190918 -296.151123
v 109.986702 -880.332886 -151.383636
v 139.057724 880.332886 -125.208046
v 272.037903 822.190857 -244.943909
v 393.128723 728.115295 -353.974609
v 497.037994 602.217529 -447.534882
v 579.224243 449.999969 -521.535767
v 636.095581 278.115265 -572.742981
v 665.166626 94.075577 -598.918579
v 665.166626 -94.075661 -598.918579
v 636.095581 -278.115326 -572.742859
v 579.224243 -450.000061 -521.535706
v 497.037964 -602.217590 -447.534821
v 393.128662 -728.115356 -353.974548
v 272.037872 -822.190918 -244.943878
v 139.057678 -880.332886 -125.208023
v 162.051208 880.332886 -93.560226
v 317.019958 822.190857 -183.031448
v 458.133423 728.115295 -264.503357
v 579.224304 602.217529 -334.415161
v 675.000244 449.999969 -389.711487
v 741.275330 278.115265 -427.975464
v 775.153320 94.075577 -447.534882
v 775.153320 -94.075661 -447.534882
v 741.275330 -278.115326 -427.975342
v 675.000183 -450.000061 -389.711426
v 579.224243 -602.217590 -334.415100
v 458.133362 -728.115356 -264.503296
v 317.019928 -822.190918 -183.031418
v 162.051163 -880.332886 -93.560211
v 177.962296 880.332886 -57.823376
v 348.146729 822.190857 -113.119629
v 503.115509 728.115295 -163.472031
v 636.095703 602.217529 -206.679871
v 741.275452 449.999969 -240.854919
v 814.057861 278.115265 -264.503357
v 851.262085 94.075577 -276.591736
v 851.262085 -94.075661 -276.591736
v 814.057800 -278.115326 -264.503265
v 741.275391 -450.000061 -240.854874
v 636.095642 -602.217590 -206.679840
v 503.115417 -728.115356 -163.471985
v 348.146698 -822.190918 -113.119598
v 177.962234 -880.332886 -57.823368
v 186.095566 880.332886 -19.559355
v 364.057831 822.190857 -38.263916
v 526.109009 728.115295 -55.296181
v 665.166687 602.217529 -69.911682
v 775.153381 449.999969 -81.471832
v 851.262085 278.115265 -89.471176
v 890.166626 94.075577 -93.560196
v 890.166626 -94.075661 -93.560196
v 851.262024 -278.115326 -89.471100
v 775.153320 -450.000061 -81.471802
v 665.166565 -602.217590 -69.911667
v 526.108887 -728.115356 -55.296150
v 364.057800 -822.190918 -38.263893
v 186.095505 -880.332886 -19.559359
v 186.095566 880.332886 19.559509
v 364.057831 822.190857 38.264122
v 526.109009 728.115295 55.296387
v 665.166687 602.217529 69.911995
v 775.153381 449.999969 81.471970
v 851.262085 278.115265 89.471329
v 890.166626 94.075577 93.560364
v 890.166626 -94.075661 93.560364
v 851.262024 -278.115326 89.471390
v 775.153320 -450.000061 81.472000
v 665.166565 -602.217590 69.911980
v 526.108887 -728.115356 55.296394
v 364.057800 -822.190918 38.264145
v 186.095505 -880.332886 19.559494
v 177.962296 880.332886 57.823532
v 348.146759 822.190857 113.119843
v 503.115570 728.115295 163.472244
v 636.095703 602.217529 206.680206
v 741.275452 449.999969 240.855072
v 814.057861 278.115265 264.503510
v 851.262085 94.075577 276.591888
v 851.262085 -94.075661 276.591888
v 814.057739 -278.115326 264.503571
v 741.275391 -450.000061 240.855103
v 636.095581 -602.217590 206.680145
v 503.115448 -728.115356 163.472229
v 348.146729 -822.190918 113.119858
v 177.962234 -880.332886 57.823505
v 162.051224 880.332886 93.560394
v 317.020020 822.190857 183.031677
v 458.133545 728.115295 264.503601
v 579.224243 602.217529 334.415497
v 675.000244 449.999969 389.711670
v 741.275391 278.115265 427.975647
v 775.153259 94.075577 447.535034
v 775.153259 -94.075661 447.535034
v 741.275208 -278.115326 427.975647
v 675.000183 -450.000061 389.711670
v 579.224121 -602.217590 334.415405
v 458.133423 -728.115356 264.503571
v 317.019989 -822.190918 183.031708
v 162.051163 -880.332886 93.560356
v 139.057739 880.332886 125.208221
v 272.037994 822.190857 244.944168
v 393.128876 728.115295 353.974915
v 497.037964 602.217529 447.535217
v 579.224243 449.999969 521.536011
v 636.095642 278.115265 572.743164
v 665.166504 94.075577 598.918762
v 665.166504 -94.075661 598.918762
v 636.095459 -278.115326 572.743164
v 579.224182 -450.000061 521.536011
v 497.037872 -602.217590 447.535095
v 393.128784 -728.115356 353.974854
v 272.037933 -822.190918 244.944183
v 139.057693 -880.332886 125.208176
v 109.986755 880.332886 151.383850
v 215.166580 822.190857 296.151428
v 310.942596 728.115295 427.975800
v 393.128754 602.217529 541.095520
v 458.133423 449.999969 630.566711
v 503.115448 278.115265 692.479065
v 526.108826 94.075577 724.126892
v 526.108826 -94.075661 724.126892
v 503.115265 -278.115326 692.479065
v 458.133362 -450.000061 630.566711
v 393.128662 -602.217590 541.095398
v 310.942505 -728.115356 427.975739
v 215.166519 -822.190918 296.151428
v 109.986725 -880.332886 151.383804
v 76.108826 880.332886 170.943298
v 148.891342 822.190857 334.415466
v 215.166611 728.115295 483.272095
v 272.037903 602.217529 611.007385
v 317.019958 449.999969 712.038635
v 348.146698 278.115265 781.950317
v 364.057709 94.075577 817.687134
v 364.057709 -94.075661 817.687134
v 348.146515 -278.115326 781.950317
v 317.019897 -450.000061 712.038635
v 272.037842 -602.217590 611.007202
v 215.166519 -728.115356 483.272034
v 148.891281 -822.190918 334.415436
v 76.108803 -880.332886 170.943237
v 38.904568 880.332886 183.031693
v 76.108841 822.190857 358.063934
v 109.986801 728.115295 517.447144
v 139.057663 602.217529 654.215271
v 162.051163 449.999969 762.391052
v 177.962280 278.115265 837.246643
v 186.095459 94.075577 875.510559
v 186.095459 -94.075661 875.510559
v 177.962097 -278.115326 837.246582
v 162.051102 -450.000061 762.391052
v 139.057632 -602.217590 654.215149
v 109.986717 -728.115356 517.447021
v 76.108780 -822.190918 358.063904
v 38.904564 -880.332886 183.031631
v -0.000007 880.332886 187.120728
v 0.000016 822.190857 366.063293
v 0.000032 728.115295 529.007263
v -0.000075 602.217529 668.830872
v -0.000045 449.999969 779.423340
v 0.000016 278.115265 855.951233
v -0.000045 94.075577 895.070007
v -0.000045 -94.075661 895.070007
v -0.000151 -278.115326 855.951172
v -0.000106 -450.000061 779.423340
v -0.000075 -602.217590 668.830688
v -0.000029 -728.115356 529.007141
v -0.000037 -822.190918 366.063263
v 0.000005 -880.332886 187.120667
v -0.000016 900.000000 0.000156
v -38.904579 880.332886 183.031693
v -76.108810 822.190857 358.063934
v -109.986755 728.115295 517.447205
v -139.057831 602.217529 654.215332
v -162.051270 449.999969 762.391113
v -177.962250 278.115265 837.246643
v -186.095551 94.075577 875.510620
v -186.095551 -94.075661 875.510620
v -177.962402 -278.115326 837.246521
v -162.051331 -450.000061 762.391113
v -139.057785 -602.217590 654.215149
v -109.986786 -728.115356 517.447083
v -76.108856 -822.190918 358.063904
v -38.904556 -880.332886 183.031631
v -76.108841 880.332886 170.943298
v -148.891312 822.190857 334.415466
v -215.166595 728.115295 483.272217
v -272.038086 602.217529 611.007446
v -317.020050 449.999969 712.038696
v -348.146698 278.115265 781.950378
v -364.057770 94.075577 817.687195
v -364.057770 -94.075661 817.687195
v -348.146820 -278.115326 781.950195
v -317.020111 -450.000061 712.038696
v -272.037994 -602.217590 611.007263
v -215.166611 -728.115356 483.272095
v -148.891357 -822.190918 334.415436
v -76.108795 -880.332886 170.943237
v -109.986771 880.332886 151.383865
v -215.166550 822.190857 296.151459
v -310.942596 728.115295 427.975922
v -393.128998 602.217529 541.095581
v -458.133545 449.999969 630.566772
v -503.115479 278.115265 692.479126
v -526.108948 94.075577 724.126892
v -526.108948 -94.075661 724.126892
v -503.115540 -278.115326 692.478943
v -458.133606 -450.000061 630.566772
v -393.128845 -602.217590 541.095398
v -310.942596 -728.115356 427.975800
v -215.166595 -822.190918 296.151398
v -109.986725 -880.332886 151.383804
v -139.057755 880.332886 125.208237
v -272.037964 822.190857 244.944199
v -393.128937 728.115295 353.975037
v -497.038269 602.217529 447.535248
v -579.224487 449.999969 521.536072
v -636.095703 278.115265 572.743225
v -665.166687 94.075577 598.918762
v -665.166687 -94.075661 598.918762
v -636.095764 -278.115326 572.743042
v -579.224487 -450.000061 521.536072
v -497.038086 -602.217590 447.535095
v -393.128906 -728.115356 353.974915
v -272.037994 -822.190918 244.944122
v -139.057693 -880.332886 125.208191
v -162.051254 880.332886 93.560402
v -317.020020 822.190857 183.031708
v -458.133667 728.115295 264.503723
v -579.224609 602.217529 334.415466
v -675.000549 449.999969 389.711731
v -741.275513 278.115265 427.975677
v -775.153442 94.075577 447.535034
v -775.153442 -94.075661 447.535034
v -741.275513 -278.115326 427.975464
v -675.000549 -450.000061 389.711731
v -579.224426 -602.217590 334.415375
v -458.133606 -728.115356 264.503601
v -317.020050 -822.190918 183.031616
v -162.051178 -880.332886 93.560371
v -177.962341 880.332886 57.823532
v -348.146790 822.190857 113.119858
v -503.115723 728.115295 163.472351
v -636.096069 602.217529 206.680115
v -741.275818 449.999969 240.855103
v -814.058044 278.115265 264.503540
v -851.262268 94.075577 276.591858
v -851.262268 -94.075661 276.591858
v -814.057983 -278.115326 264.503296
v -741.275818 -450.000061 240.855103
v -636.095886 -602.217590 206.680069
v -503.115631 -728.115356 163.472229
v -348.146790 -822.190918 113.119759
v -177.962265 -880.332886 57.823517
v -186.095612 880.332886 19.559500
v -364.057861 822.190857 38.264130
v -526.109253 728.115295 55.296440
v -665.167053 602.217529 69.911850
v -775.153809 449.999969 81.471924
v -851.262329 278.115265 89.471313
v -890.166870 94.075577 93.560287
v -890.166870 -94.075661 93.560287
v -851.262207 -278.115326 89.471085
v -775.153809 -450.000061 81.471924
v -665.166870 -602.217590 69.911850
v -526.109131 -728.115356 55.296356
v -364.057831 -822.190918 38.264030
v -186.095535 -880.332886 19.559500
v -186.095612 880.332886 -19.559376
v -364.057861 822.190857 -38.263920
v -526.109253 728.115295 -55.296188
v -665.167114 602.217529 -69.911896
v -775.153809 449.999969 -81.471977
v -851.262329 278.115265 -89.471245
v -890.166870 94.075577 -93.560341
v -890.166870 -94.075661 -93.560341
v -851.262207 -278.115326 -89.471436
v -775.153809 -450.000061 -81.471977
v -665.166870 -602.217590 -69.911865
v -526.109192 -728.115356 -55.296246
v -364.057800 -822.190918 -38.264008
v -186.095535 -880.332886 -19.559361
v -177.962341 880.332886 -57.823410
v -348.146790 822.190857 -113.119644
v -503.115723 728.115295 -163.472107
v -636.096130 602.217529 -206.680176
v -741.275879 449.999969 -240.855164
v -814.058105 278.115265 -264.503479
v -851.262329 94.075577 -276.591919
v -851.262329 -94.075661 -276.591919
v -814.057922 -278.115326 -264.503632
v -741.275879 -450.000061 -240.855164
v -636.095886 -602.217590 -206.680099
v -503.115662 -728.115356 -163.472137
v -348.146698 -822.190918 -113.119728
v -177.962265 -880.332886 -57.823383
v -162.051254 880.332886 -93.560287
v -317.020020 822.190857 -183.031494
v -458.133667 728.115295 -264.503510
v -579.224670 602.217529 -334.415558
v -675.000671 449.999969 -389.711853
v -741.275635 278.115265 -427.975647
v -775.153503 94.075577 -447.535126
v -775.153503 -94.075661 -447.535126
v -741.275391 -278.115326 -427.975769
v -675.000671 -450.000061 -389.711853
v -579.224487 -602.217590 -334.415405
v -458.133606 -728.115356 -264.503510
v -317.019928 -822.190918 -183.031570
v -162.051193 -880.332886 -93.560242
v -139.057755 880.332886 -125.208122
v -272.037964 822.190857 -244.943985
v -393.128937 728.115295 -353.974823
v -497.038330 602.217529 -447.535370
v -579.224670 449.999969 -521.536255
v -636.095886 278.115265 -572.743225
v -665.166748 94.075577 -598.918945
v -665.166748 -94.075661 -598.918945
v -636.095581 -278.115326 -572.743286
v -579.224670 -450.000061 -521.536255
v -497.038177 -602.217590 -447.535187
v -393.128876 -728.115356 -353.974823
v -272.037842 -822.190918 -244.944046
v -139.057709 -880.332886 -125.208069
v -109.986763 880.332886 -151.383759
v -215.166550 822.190857 -296.151245
v -310.942596 728.115295 -427.975739
v -393.128998 602.217529 -541.095703
v -458.133759 449.999969 -630.567017
v -503.115631 278.115265 -692.479187
v -526.109009 94.075577 -724.127075
v -526.109009 -94.075661 -724.127075
v -503.115326 -278.115326 -692.479187
v -458.133759 -450.000061 -630.567017
v -393.128906 -602.217590 -541.095520
v -310.942535 -728.115356 -427.975708
v -215.166428 -822.190918 -296.151276
v -109.986725 -880.332886 -151.383698
v -76.108818 880.332886 -170.943207
v -148.891327 822.190857 -334.415283
v -215.166580 728.115295 -483.272034
v -272.038055 602.217529 -611.007568
v -317.020142 449.999969 -712.039001
v -348.146820 278.115265 -781.950500
v -364.057770 94.075577 -817.687378
v -364.057770 -94.075661 -817.687378
v -348.146515 -278.115326 -781.950439
v -317.020142 -450.000061 -712.039001
v -272.037994 -602.217590 -611.007385
v -215.166534 -728.115356 -483.272003
v -148.891190 -822.190918 -334.415283
v -76.108795 -880.332886 -170.943130
v -38.904556 880.332886 -183.031601
v -76.108833 822.190857 -358.063751
v -109.986748 728.115295 -517.447021
v -139.057755 602.217529 -654.215454
v -162.051239 449.999969 -762.391418
v -177.962296 278.115265 -837.246826
v -186.095444 94.075577 -875.510864
v -186.095444 -94.075661 -875.510864
v -177.962036 -278.115326 -837.246704
v -162.051239 -450.000061 -762.391418
v -139.057724 -602.217590 -654.215271
v -109.986710 -728.115356 -517.447021
v -76.108696 -822.190918 -358.063721
v -38.904549 -880.332886 -183.031525
v 0.000000 -900.000000 0.000079
v -0.000014 822.190857 -366.063110
vt 0.733333 0.600000
vt 0.700000 0.600000
vt 0.700000 0.666667
vt 0.733333 0.666667
vt 0.733333 0.066667
vt 0.700000 0.066667
vt 0.700000 0.133333
vt 0.733333 0.133333
vt 0.733333 0.533333
vt 0.700000 0.533333
vt 0.716667 0.000000
vt 0.733333 0.466667
vt 0.700000 0.466667
vt 0.733333 0.933333
vt 0.700000 0.933333
vt 1.216667 1.000000
vt 0.733333 0.400000
vt 0.700000 0.400000
vt 0.733333 0.866667
vt 0.700000 0.866667
vt 0.733333 0.333333
vt 0.700000 0.333333
vt 0.733333 0.800000
vt 0.700000 0.800000
vt 0.733333 0.266667
vt 0.700000 0.266667
vt 0.733333 0.733333
vt 0.700000 0.733333
vt 0.733333 0.200000
vt 0.700000 0.200000
vt 0.666667 0.600000
vt 0.666667 0.666667
vt 0.666667 0.066667
vt 0.666667 0.133333
vt 0.666667 0.533333
vt 0.683333 0.000000
vt 0.666667 0.466667
vt 0.666667 0.933333
vt 0.216667 1.000000
vt 0.666667 0.400000
vt 0.666667 0.866667
vt 0.666667 0.333333
vt 0.666667 0.800000
vt 0.666667 0.266667
vt 0.666667 0.733333
vt 0.666667 0.200000
vt 0.633333 0.200000
vt 0.633333 0.266667
vt 0.633333 0.666667
vt 0.633333 0.733333
vt 0.633333 0.133333
vt 0.633333 0.600000
vt 0.633333 0.066667
vt 0.633333 0.533333
vt 0.650000 0.000000
vt 0.633333 0.466667
vt 0.633333 0.933333
vt 0.633333 0.400000
vt 0.633333 0.866667
vt 0.633333 0.333333
vt 0.633333 0.800000
vt 0.600000 0.800000
vt 0.600000 0.866667
vt 0.600000 0.266667
vt 0.600000 0.333333
vt 0.600000 0.733333
vt 0.600000 0.200000
vt 0.600000 0.666667
vt 0.600000 0.133333
vt 0.600000 0.600000
vt 0.600000 0.066667
vt 0.600000 0.533333
vt 0.616667 0.000000
vt 0.600000 0.466667
vt 0.600000 0.933333
vt 0.600000 0.400000
vt 0.566667 0.400000
vt 0.566667 0.466667
vt 0.566667 0.866667
vt 0.566667 0.933333
vt 0.566667 0.333333
vt 0.566667 0.800000
vt 0.566667 0.266667
vt 0.566667 0.733333
vt 0.566667 0.200000
vt 0.566667 0.666667
vt 0.566667 0.133333
vt 0.566667 0.600000
vt 0.566667 0.066667
vt 0.566667 0.533333
vt 0.583333 0.000000
vt 0.550000 0.000000
vt 0.533333 0.066667
vt 0.533333 0.466667
vt 0.533333 0.533333
vt 0.533333 0.933333
vt 0.533333 0.400000
vt 0.533333 0.866667
vt 0.533333 0.333333
vt 0.533333 0.800000
vt 0.533333 0.266667
vt 0.533333 0.733333
vt 0.533333 0.200000
vt 0.533333 0.666667
vt 0.533333 0.133333
vt 0.533333 0.600000
vt 0.500000 0.066667
vt 0.500000 0.133333
vt 0.500000 0.533333
vt 0.500000 0.600000
vt 0.516667 0.000000
vt 0.500000 0.466667
vt 0.500000 0.933333
vt 0.500000 0.400000
vt 0.500000 0.866667
vt 0.500000 0.333333
vt 0.500000 0.800000
vt 0.500000 0.266667
vt 0.500000 0.733333
vt 0.500000 0.200000
vt 0.500000 0.666667
vt 0.466667 0.666667
vt 0.466667 0.733333
vt 0.466667 0.133333
vt 0.466667 0.200000
vt 0.466667 0.600000
vt 0.466667 0.066667
vt 0.466667 0.533333
vt 0.483333 0.000000
vt 0.466667 0.466667
vt 0.466667 0.933333
vt 0.466667 0.400000
vt 0.466667 0.866667
vt 0.466667 0.333333
vt 0.466667 0.800000
vt 0.466667 0.266667
vt 0.433333 0.266667
vt 0.433333 0.333333
vt 0.433333 0.733333
vt 0.433333 0.800000
vt 0.433333 0.200000
vt 0.433333 0.666667
vt 0.433333 0.133333
vt 0.433333 0.600000
vt 0.433333 0.066667
vt 0.433333 0.533333
vt 0.450000 0.000000
vt 0.433333 0.466667
vt 0.433333 0.933333
vt 0.433333 0.400000
vt 0.433333 0.866667
vt 0.400000 0.866667
vt 0.400000 0.933333
vt 0.400000 0.333333
vt 0.400000 0.400000
vt 0.400000 0.800000
vt 0.400000 0.266667
vt 0.400000 0.733333
vt 0.400000 0.200000
vt 0.400000 0.666667
vt 0.400000 0.133333
vt 0.400000 0.600000
vt 0.400000 0.066667
vt 0.400000 0.533333
vt 0.416667 0.000000
vt 0.400000 0.466667
vt 0.366667 0.466667
vt 0.366667 0.533333
vt 0.366667 0.933333
vt 0.366667 0.400000
vt 0.366667 0.866667
vt 0.366667 0.333333
vt 0.366667 0.800000
vt 0.366667 0.266667
vt 0.366667 0.733333
vt 0.366667 0.200000
vt 0.366667 0.666667
vt 0.366667 0.133333
vt 0.366667 0.600000
vt 0.366667 0.066667
vt 0.383333 0.000000
vt 0.333333 0.066667
vt 0.333333 0.133333
vt 0.333333 0.533333
vt 0.333333 0.600000
vt 0.350000 0.000000
vt 0.333333 0.466667
vt 0.333333 0.933333
vt 0.333333 0.400000
vt 0.333333 0.866667
vt 0.333333 0.333333
vt 0.333333 0.800000
vt 0.333333 0.266667
vt 0.333333 0.733333
vt 0.333333 0.200000
vt 0.333333 0.666667
vt 0.300000 0.133333
vt 0.300000 0.200000
vt 0.300000 0.600000
vt 0.300000 0.666667
vt 0.300000 0.066667
vt 0.300000 0.533333
vt 0.316667 0.000000
vt 0.300000 0.466667
vt 0.300000 0.933333
vt 0.300000 0.400000
vt 0.300000 0.866667
vt 0.300000 0.333333
vt 0.300000 0.800000
vt 0.300000 0.266667
vt 0.300000 0.733333
vt 0.266667 0.733333
vt 0.266667 0.800000
vt 0.266667 0.200000
vt 0.266667 0.266667
vt 0.266667 0.666667
vt 0.266667 0.133333
vt 0.266667 0.600000
vt 0.266667 0.066667
vt 0.266667 0.533333
vt 0.283333 0.000000
vt 0.266667 0.466667
vt 0.266667 0.933333
vt 0.266667 0.400000
vt 0.266667 0.866667
vt 0.266667 0.333333
vt 0.233333 0.333333
vt 0.233333 0.400000
vt 0.233333 0.800000
vt 0.233333 0.866667
vt 0.233333 0.266667
vt 0.233333 0.733333
vt 0.233333 0.200000
vt 0.233333 0.666667
vt 0.233333 0.133333
vt 0.233333 0.600000
vt 0.233333 0.066667
vt 0.233333 0.533333
vt 0.250000 0.000000
vt 0.233333 0.466667
vt 0.233333 0.933333
vt 0.200000 0.933333
vt 0.200000 0.400000
vt 0.200000 0.466667
vt 0.200000 0.866667
vt 0.200000 0.333333
vt 0.200000 0.800000
vt 0.200000 0.266667
vt 0.200000 0.733333
vt 0.200000 0.200000
vt 0.200000 0.666667
vt 0.200000 0.133333
vt 0.200000 0.600000
vt 0.200000 0.066667
vt 0.200000 0.533333
vt 0.216667 0.000000
vt 0.166667 0.533333
vt 0.166667 0.600000
vt 0.183333 0.000000
vt 0.166667 0.066667
vt 0.166667 0.466667
vt 0.166667 0.933333
vt 0.166667 0.400000
vt 0.166667 0.866667
vt 0.166667 0.333333
vt 0.166667 0.800000
vt 0.166667 0.266667
vt 0.166667 0.733333
vt 0.166667 0.200000
vt 0.166667 0.666667
vt 0.166667 0.133333
vt 0.133333 0.133333
vt 0.133333 0.200000
vt 0.133333 0.600000
vt 0.133333 0.666667
vt 0.133333 0.066667
vt 0.133333 0.533333
vt 0.150000 0.000000
vt 0.133333 0.466667
vt 0.133333 0.933333
vt 0.133333 0.400000
vt 0.133333 0.866667
vt 0.133333 0.333333
vt 0.133333 0.800000
vt 0.133333 0.266667
vt 0.133333 0.733333
vt 0.100000 0.200000
vt 0.100000 0.266667
vt 0.100000 0.666667
vt 0.100000 0.733333
vt 0.100000 0.133333
vt 0.100000 0.600000
vt 0.100000 0.066667
vt 0.100000 0.533333
vt 0.116667 0.000000
vt 0.100000 0.466667
vt 0.100000 0.933333
vt 0.100000 0.400000
vt 0.100000 0.866667
vt 0.100000 0.333333
vt 0.100000 0.800000
vt 0.066667 0.800000
vt 0.066667 0.866667
vt 0.066667 0.266667
vt 0.066667 0.333333
vt 0.066667 0.733333
vt 0.066667 0.200000
vt 0.066667 0.666667
vt 0.066667 0.133333
vt 0.066667 0.600000
vt 0.066667 0.066667
vt 0.066667 0.533333
vt 0.083333 0.000000
vt 0.066667 0.466667
vt 0.066667 0.933333
vt 0.066667 0.400000
vt 0.033333 0.400000
vt 0.033333 0.466667
vt 0.033333 0.866667
vt 0.033333 0.933333
vt 0.033333 0.333333
vt 0.033333 0.800000
vt 0.033333 0.266667
vt 0.033333 0.733333
vt 0.033333 0.200000
vt 0.033333 0.666667
vt 0.033333 0.133333
vt 0.033333 0.600000
vt 0.033333 0.066667
vt 0.033333 0.533333
vt 0.050000 0.000000
vt 0.016667 0.000000
vt 0.000000 0.066667
vt 0.000000 0.466667
vt 0.000000 0.533333
vt 0.000000 0.933333
vt 0.000000 0.400000
vt 0.000000 0.866667
vt 0.000000 0.333333
vt 0.000000 0.800000
vt 0.000000 0.266667
vt 0.000000 0.733333
vt 0.000000 0.200000
vt 0.000000 0.666667
vt 0.000000 0.133333
vt 0.000000 0.600000
vt 1.000000 0.600000
vt 0.966667 0.600000
vt 0.966667 0.666667
vt 1.000000 0.666667
vt 1.000000 0.066667
vt 0.966667 0.066667
vt 0.966667 0.133333
vt 1.000000 0.133333
vt 1.000000 0.533333
vt 0.966667 0.533333
vt 0.983333 0.000000
vt 1.000000 0.466667
vt 0.966667 0.466667
vt 1.000000 0.933333
vt 0.966667 0.933333
vt 1.000000 0.400000
vt 0.966667 0.400000
vt 1.000000 0.866667
vt 0.966667 0.866667
vt 1.000000 0.333333
vt 0.966667 0.333333
vt 1.000000 0.800000
vt 0.966667 0.800000
vt 1.000000 0.266667
vt 0.966667 0.266667
vt 1.000000 0.733333
vt 0.966667 0.733333
vt 1.000000 0.200000
vt 0.966667 0.200000
vt 0.933333 0.200000
vt 0.933333 0.266667
vt 0.933333 0.666667
vt 0.933333 0.733333
vt 0.933333 0.133333
vt 0.933333 0.600000
vt 0.933333 0.066667
vt 0.933333 0.533333
vt 0.950000 0.000000
vt 0.933333 0.466667
vt 0.933333 0.933333
vt 0.933333 0.400000
vt 0.933333 0.866667
vt 0.933333 0.333333
vt 0.933333 0.800000
vt 0.900000 0.266667
vt 0.900000 0.333333
vt 0.900000 0.733333
vt 0.900000 0.800000
vt 0.900000 0.200000
vt 0.900000 0.666667
vt 0.900000 0.133333
vt 0.900000 0.600000
vt 0.900000 0.066667
vt 0.900000 0.533333
vt 0.916667 0.000000
vt 0.900000 0.466667
vt 0.900000 0.933333
vt 0.900000 0.400000
vt 0.900000 0.866667
vt 0.866667 0.866667
vt 0.866667 0.933333
vt 0.866667 0.333333
vt 0.866667 0.400000
vt 0.866667 0.800000
vt 0.866667 0.266667
vt 0.866667 0.733333
vt 0.866667 0.200000
vt 0.866667 0.666667
vt 0.866667 0.133333
vt 0.866667 0.600000
vt 0.866667 0.066667
vt 0.866667 0.533333
vt 0.883333 0.000000
vt 0.866667 0.466667
vt 0.833333 0.466667
vt 0.833333 0.533333
vt 0.833333 0.933333
vt 0.833333 0.400000
vt 0.833333 0.866667
vt 0.833333 0.333333
vt 0.833333 0.800000
vt 0.833333 0.266667
vt 0.833333 0.733333
vt 0.833333 0.200000
vt 0.833333 0.666667
vt 0.833333 0.133333
vt 0.833333 0.600000
vt 0.833333 0.066667
vt 0.850000 0.000000
vt 0.800000 0.066667
vt 0.800000 0.133333
vt 0.800000 0.533333
vt 0.800000 0.600000
vt 0.816667 0.000000
vt 0.800000 0.466667
vt 0.800000 0.933333
vt 0.800000 0.400000
vt 0.800000 0.866667
vt 0.800000 0.333333
vt 0.800000 0.800000
vt 0.800000 0.266667
vt 0.800000 0.733333
vt 0.800000 0.200000
vt 0.800000 0.666667
vt 0.766667 0.666667
vt 0.766667 0.733333
vt 0.766667 0.133333
vt 0.766667 0.200000
vt 0.766667 0.600000
vt 0.766667 0.066667
vt 0.766667 0.533333
vt 0.783333 0.000000
vt 0.766667 0.466667
vt 0.766667 0.933333
vt 0.766667 0.400000
vt 0.766667 0.866667
vt 0.766667 0.333333
vt 0.766667 0.800000
vt 0.766667 0.266667
vt 0.750000 0.000000
vn 0.0000 -0.3070 0.9517
vn -0.1979 -0.3070 0.9309
vn -0.1804 -0.4970 0.8488
vn 0.0000 -0.4970 0.8677
vn 0.0000 0.9767 0.2145
vn -0.0446 0.9767 0.2098
vn -0.0858 0.9109 0.4035
vn 0.0000 0.9109 0.4125
vn 0.0000 -0.1038 0.9946
vn -0.2068 -0.1038 0.9728
vn 0.0000 1.0000 0.0000
vn 0.0000 0.1038 0.9946
vn -0.2068 0.1038 0.9728
vn 0.0000 -0.9767 0.2145
vn -0.0446 -0.9767 0.2098
vn 0.0000 -1.0000 0.0000
vn 0.0000 0.3070 0.9517
vn -0.1979 0.3070 0.9309
vn 0.0000 -0.9109 0.4125
vn -0.0858 -0.9109 0.4035
vn 0.0000 0.4970 0.8677
vn -0.1804 0.4970 0.8488
vn 0.0000 -0.8057 0.5923
vn -0.1231 -0.8057 0.5793
vn 0.0000 0.6657 0.7462
vn -0.1551 0.6657 0.7299
vn 0.0000 -0.6657 0.7462
vn -0.1551 -0.6657 0.7299
vn 0.0000 0.8057 0.5923
vn -0.1231 0.8057 0.5793
vn -0.3871 -0.3070 0.8694
vn -0.3529 -0.4970 0.7927
vn -0.0873 0.9767 0.1960
vn -0.1678 0.9109 0.3768
vn -0.4045 -0.1038 0.9086
vn -0.4045 0.1038 0.9086
vn -0.0873 -0.9767 0.1960
vn -0.3871 0.3070 0.8694
vn -0.1678 -0.9109 0.3768
vn -0.3529 0.4970 0.7927
vn -0.2409 -0.8057 0.5411
vn -0.3035 0.6657 0.6817
vn -0.3035 -0.6657 0.6817
vn -0.2409 0.8057 0.5411
vn -0.3481 0.8057 0.4792
vn -0.4386 0.6657 0.6037
vn -0.5100 -0.4970 0.7020
vn -0.4386 -0.6657 0.6037
vn -0.2425 0.9109 0.3337
vn -0.5594 -0.3070 0.7700
vn -0.1261 0.9767 0.1736
vn -0.5846 -0.1038 0.8046
vn -0.5846 0.1038 0.8046
vn -0.1261 -0.9767 0.1736
vn -0.5594 0.3070 0.7700
vn -0.2425 -0.9109 0.3337
vn -0.5100 0.4970 0.7020
vn -0.3481 -0.8057 0.4792
vn -0.4402 -0.8057 0.3963
vn -0.3066 -0.9109 0.2760
vn -0.5546 0.6657 0.4993
vn -0.6449 0.4970 0.5806
vn -0.5546 -0.6657 0.4993
vn -0.4402 0.8057 0.3963
vn -0.6449 -0.4970 0.5806
vn -0.3066 0.9109 0.2760
vn -0.7072 -0.3070 0.6368
vn -0.1594 0.9767 0.1436
vn -0.7391 -0.1038 0.6655
vn -0.7391 0.1038 0.6655
vn -0.1594 -0.9767 0.1436
vn -0.7072 0.3070 0.6368
vn -0.8242 0.3070 0.4758
vn -0.8613 0.1038 0.4973
vn -0.3572 -0.9109 0.2062
vn -0.1858 -0.9767 0.1073
vn -0.7515 0.4970 0.4339
vn -0.5129 -0.8057 0.2962
vn -0.6462 0.6657 0.3731
vn -0.6462 -0.6657 0.3731
vn -0.5129 0.8057 0.2962
vn -0.7515 -0.4970 0.4339
vn -0.3572 0.9109 0.2062
vn -0.8242 -0.3070 0.4758
vn -0.1858 0.9767 0.1073
vn -0.8613 -0.1038 0.4973
vn -0.2040 0.9767 0.0663
vn -0.9459 0.1038 0.3073
vn -0.9459 -0.1038 0.3073
vn -0.2040 -0.9767 0.0663
vn -0.9051 0.3070 0.2941
vn -0.3923 -0.9109 0.1274
vn -0.8253 0.4970 0.2681
vn -0.5633 -0.8057 0.1830
vn -0.7097 0.6657 0.2306
vn -0.7097 -0.6657 0.2306
vn -0.5633 0.8057 0.1830
vn -0.8253 -0.4970 0.2681
vn -0.3923 0.9109 0.1274
vn -0.9051 -0.3070 0.2941
vn -0.2134 0.9767 0.0224
vn -0.4102 0.9109 0.0431
vn -0.9891 -0.1038 0.1039
vn -0.9465 -0.3070 0.0995
vn -0.9891 0.1038 0.1039
vn -0.2134 -0.9767 0.0224
vn -0.9465 0.3070 0.0995
vn -0.4102 -0.9109 0.0431
vn -0.8630 0.4970 0.0907
vn -0.5890 -0.8057 0.0619
vn -0.7421 0.6657 0.0780
vn -0.7421 -0.6657 0.0780
vn -0.5890 0.8057 0.0619
vn -0.8630 -0.4970 0.0907
vn -0.8630 -0.4970 -0.0907
vn -0.7421 -0.6657 -0.0780
vn -0.4102 0.9109 -0.0431
vn -0.5890 0.8057 -0.0619
vn -0.9465 -0.3070 -0.0995
vn -0.2134 0.9767 -0.0224
vn -0.9891 -0.1038 -0.1039
vn -0.9891 0.1038 -0.1039
vn -0.2134 -0.9767 -0.0224
vn -0.9465 0.3070 -0.0995
vn -0.4102 -0.9109 -0.0431
vn -0.8630 0.4970 -0.0907
vn -0.5890 -0.8057 -0.0619
vn -0.7421 0.6657 -0.0780
vn -0.7097 0.6657 -0.2306
vn -0.8253 0.4970 -0.2681
vn -0.7097 -0.6657 -0.2306
vn -0.5633 -0.8057 -0.1830
vn -0.5633 0.8057 -0.1830
vn -0.8253 -0.4970 -0.2681
vn -0.3923 0.9109 -0.1274
vn -0.9051 -0.3070 -0.2941
vn -0.2040 0.9767 -0.0663
vn -0.9459 -0.1038 -0.3073
vn -0.9459 0.1038 -0.3073
vn -0.2040 -0.9767 -0.0663
vn -0.9051 0.3070 -0.2941
vn -0.3923 -0.9109 -0.1274
vn -0.3572 -0.9109 -0.2062
vn -0.1858 -0.9767 -0.1073
vn -0.7515 0.4970 -0.4339
vn -0.8242 0.3070 -0.4758
vn -0.5129 -0.8057 -0.2962
vn -0.6462 0.6657 -0.3731
vn -0.6462 -0.6657 -0.3731
vn -0.5129 0.8057 -0.2962
vn -0.7515 -0.4970 -0.4339
vn -0.3572 0.9109 -0.2062
vn -0.8242 -0.3070 -0.4758
vn -0.1858 0.9767 -0.1073
vn -0.8613 -0.1038 -0.4973
vn -0.8613 0.1038 -0.4973
vn -0.7391 0.1038 -0.6655
vn -0.7391 -0.1038 -0.6655
vn -0.1594 -0.9767 -0.1436
vn -0.7072 0.3070 -0.6368
vn -0.3066 -0.9109 -0.2760
vn -0.6449 0.4970 -0.5806
vn -0.4402 -0.8057 -0.3963
vn -0.5546 0.6657 -0.4993
vn -0.5546 -0.6657 -0.4993
vn -0.4402 0.8057 -0.3963
vn -0.6449 -0.4970 -0.5806
vn -0.3066 0.9109 -0.2760
vn -0.7072 -0.3070 -0.6368
vn -0.1594 0.9767 -0.1436
vn -0.1261 0.9767 -0.1736
vn -0.2425 0.9109 -0.3337
vn -0.5846 -0.1038 -0.8046
vn -0.5594 -0.3070 -0.7700
vn -0.5846 0.1038 -0.8046
vn -0.1261 -0.9767 -0.1736
vn -0.5594 0.3070 -0.7699
vn -0.2425 -0.9109 -0.3337
vn -0.5100 0.4970 -0.7020
vn -0.3481 -0.8057 -0.4792
vn -0.4386 0.6657 -0.6037
vn -0.4386 -0.6657 -0.6037
vn -0.3481 0.8057 -0.4792
vn -0.5100 -0.4970 -0.7020
vn -0.1678 0.9109 -0.3768
vn -0.2409 0.8057 -0.5411
vn -0.3871 -0.3070 -0.8694
vn -0.3529 -0.4970 -0.7927
vn -0.0873 0.9767 -0.1960
vn -0.4045 -0.1038 -0.9086
vn -0.4045 0.1038 -0.9086
vn -0.0873 -0.9767 -0.1960
vn -0.3871 0.3070 -0.8694
vn -0.1678 -0.9109 -0.3768
vn -0.3529 0.4970 -0.7927
vn -0.2409 -0.8057 -0.5411
vn -0.3035 0.6657 -0.6817
vn -0.3035 -0.6657 -0.6817
vn -0.1551 -0.6657 -0.7299
vn -0.1231 -0.8057 -0.5793
vn -0.1231 0.8057 -0.5793
vn -0.1551 0.6657 -0.7299
vn -0.1804 -0.4970 -0.8488
vn -0.0858 0.9109 -0.4035
vn -0.1979 -0.3070 -0.9309
vn -0.0446 0.9767 -0.2098
vn -0.2068 -0.1038 -0.9728
vn -0.2068 0.1038 -0.9728
vn -0.0446 -0.9767 -0.2098
vn -0.1979 0.3070 -0.9309
vn -0.0858 -0.9109 -0.4035
vn -0.1804 0.4970 -0.8488
vn 0.0000 0.4970 -0.8677
vn 0.0000 0.3070 -0.9517
vn 0.0000 -0.8057 -0.5923
vn 0.0000 -0.9109 -0.4125
vn 0.0000 0.6657 -0.7462
vn 0.0000 -0.6657 -0.7462
vn 0.0000 0.8057 -0.5923
vn 0.0000 -0.4970 -0.8677
vn 0.0000 0.9109 -0.4125
vn 0.0000 -0.3070 -0.9517
vn 0.0000 0.9767 -0.2145
vn 0.0000 -0.1038 -0.9946
vn 0.0000 0.1038 -0.9946
vn 0.0000 -0.9767 -0.2145
vn 0.0446 -0.9767 -0.2098
vn 0.1979 0.3070 -0.9309
vn 0.2068 0.1038 -0.9728
vn 0.0858 -0.9109 -0.4035
vn 0.1804 0.4970 -0.8488
vn 0.1231 -0.8057 -0.5793
vn 0.1551 0.6657 -0.7299
vn 0.1551 -0.6657 -0.7299
vn 0.1231 0.8057 -0.5793
vn 0.1804 -0.4970 -0.8488
vn 0.0858 0.9109 -0.4035
vn 0.1979 -0.3070 -0.9309
vn 0.0446 0.9767 -0.2098
vn 0.2068 -0.1038 -0.9728
vn 0.4045 -0.1038 -0.9086
vn 0.3871 -0.3070 -0.8694
vn 0.0873 0.9767 -0.1960
vn 0.4045 0.1038 -0.9086
vn 0.0873 -0.9767 -0.1960
vn 0.3871 0.3070 -0.8694
vn 0.1678 -0.9109 -0.3768
vn 0.3529 0.4970 -0.7927
vn 0.2409 -0.8057 -0.5411
vn 0.3035 0.6657 -0.6817
vn 0.3035 -0.6657 -0.6817
vn 0.2409 0.8057 -0.5411
vn 0.3529 -0.4970 -0.7927
vn 0.1678 0.9109 -0.3768
vn 0.2425 0.9109 -0.3337
vn 0.3481 0.8057 -0.4792
vn 0.5594 -0.3070 -0.7700
vn 0.5100 -0.4970 -0.7020
vn 0.1261 0.9767 -0.1736
vn 0.5846 -0.1038 -0.8046
vn 0.5846 0.1038 -0.8046
vn 0.1261 -0.9767 -0.1736
vn 0.5594 0.3070 -0.7700
vn 0.2425 -0.9109 -0.3337
vn 0.5100 0.4970 -0.7020
vn 0.3481 -0.8057 -0.4792
vn 0.4386 0.6657 -0.6037
vn 0.4386 -0.6657 -0.6037
vn 0.4402 0.8057 -0.3963
vn 0.5546 0.6657 -0.4993
vn 0.6449 -0.4970 -0.5806
vn 0.5546 -0.6657 -0.4993
vn 0.3066 0.9109 -0.2760
vn 0.7072 -0.3070 -0.6368
vn 0.1594 0.9767 -0.1436
vn 0.7391 -0.1038 -0.6655
vn 0.7391 0.1038 -0.6655
vn 0.1594 -0.9767 -0.1436
vn 0.7072 0.3070 -0.6368
vn 0.3066 -0.9109 -0.2760
vn 0.6449 0.4970 -0.5806
vn 0.4402 -0.8057 -0.3963
vn 0.5129 -0.8057 -0.2962
vn 0.3572 -0.9109 -0.2062
vn 0.6462 0.6657 -0.3731
vn 0.7515 0.4970 -0.4339
vn 0.6462 -0.6657 -0.3731
vn 0.5129 0.8057 -0.2962
vn 0.7515 -0.4970 -0.4339
vn 0.3572 0.9109 -0.2062
vn 0.8242 -0.3070 -0.4758
vn 0.1858 0.9767 -0.1073
vn 0.8613 -0.1038 -0.4973
vn 0.8613 0.1038 -0.4973
vn 0.1858 -0.9767 -0.1073
vn 0.8242 0.3070 -0.4758
vn 0.9051 0.3070 -0.2941
vn 0.9459 0.1038 -0.3073
vn 0.3923 -0.9109 -0.1274
vn 0.2040 -0.9767 -0.0663
vn 0.8253 0.4970 -0.2681
vn 0.5633 -0.8057 -0.1830
vn 0.7097 0.6657 -0.2306
vn 0.7097 -0.6657 -0.2306
vn 0.5633 0.8057 -0.1830
vn 0.8253 -0.4970 -0.2681
vn 0.3923 0.9109 -0.1274
vn 0.9051 -0.3070 -0.2941
vn 0.2040 0.9767 -0.0663
vn 0.9459 -0.1038 -0.3073
vn 0.2134 0.9767 -0.0224
vn 0.9891 0.1038 -0.1039
vn 0.9891 -0.1038 -0.1039
vn 0.2134 -0.9767 -0.0224
vn 0.9465 0.3070 -0.0995
vn 0.4102 -0.9109 -0.0431
vn 0.8630 0.4970 -0.0907
vn 0.5890 -0.8057 -0.0619
vn 0.7421 0.6657 -0.0780
vn 0.7421 -0.6657 -0.0780
vn 0.5890 0.8057 -0.0619
vn 0.8630 -0.4970 -0.0907
vn 0.4102 0.9109 -0.0431
vn 0.9465 -0.3070 -0.0995
vn 0.9465 -0.3070 0.0995
vn 0.8630 -0.4970 0.0907
vn 0.2134 0.9767 0.0224
vn 0.4102 0.9109 0.0431
vn 0.9891 -0.1038 0.1039
vn 0.9891 0.1038 0.1039
vn 0.2134 -0.9767 0.0224
vn 0.9465 0.3070 0.0995
vn 0.4102 -0.9109 0.0431
vn 0.8630 0.4970 0.0907
vn 0.5890 -0.8057 0.0619
vn 0.7421 0.6657 0.0780
vn 0.7421 -0.6657 0.0780
vn 0.5890 0.8057 0.0619
vn 0.5633 0.8057 0.1830
vn 0.7097 0.6657 0.2306
vn 0.8253 -0.4970 0.2681
vn 0.7097 -0.6657 0.2306
vn 0.3923 0.9109 0.1274
vn 0.9051 -0.3070 0.2941
vn 0.2040 0.9767 0.0663
vn 0.9459 -0.1038 0.3073
vn 0.9459 0.1038 0.3073
vn 0.2040 -0.9767 0.0663
vn 0.9051 0.3070 0.2941
vn 0.3923 -0.9109 0.1274
vn 0.8253 0.4970 0.2681
vn 0.5633 -0.8057 0.1830
vn 0.6462 0.6657 0.3731
vn 0.7515 0.4970 0.4339
vn 0.6462 -0.6657 0.3731
vn 0.5129 -0.8057 0.2962
vn 0.5129 0.8057 0.2962
vn 0.7515 -0.4970 0.4339
vn 0.3572 0.9109 0.2062
vn 0.8242 -0.3070 0.4758
vn 0.1858 0.9767 0.1073
vn 0.8613 -0.1038 0.4973
vn 0.8613 0.1038 0.4973
vn 0.1858 -0.9767 0.1073
vn 0.8242 0.3070 0.4758
vn 0.3572 -0.9109 0.2062
vn 0.3066 -0.9109 0.2760
vn 0.1594 -0.9767 0.1436
vn 0.6449 0.4970 0.5806
vn 0.7072 0.3070 0.6368
vn 0.4402 -0.8057 0.3963
vn 0.5546 0.6657 0.4993
vn 0.5546 -0.6657 0.4993
vn 0.4402 0.8057 0.3963
vn 0.6449 -0.4970 0.5806
vn 0.3066 0.9109 0.2760
vn 0.7072 -0.3070 0.6368
vn 0.1594 0.9767 0.1436
vn 0.7391 -0.1038 0.6655
vn 0.7391 0.1038 0.6655
vn 0.5846 0.1038 0.8046
vn 0.5846 -0.1038 0.8046
vn 0.1261 -0.9767 0.1736
vn 0.5594 0.3070 0.7700
vn 0.2425 -0.9109 0.3337
vn 0.5100 0.4970 0.7020
vn 0.3481 -0.8057 0.4792
vn 0.4386 0.6657 0.6037
vn 0.4386 -0.6657 0.6037
vn 0.3481 0.8057 0.4792
vn 0.5100 -0.4970 0.7020
vn 0.2425 0.9109 0.3337
vn 0.5594 -0.3070 0.7700
vn 0.1261 0.9767 0.1736
vn 0.0873 0.9767 0.1960
vn 0.1678 0.9109 0.3768
vn 0.4045 -0.1038 0.9086
vn 0.3871 -0.3070 0.8694
vn 0.4045 0.1038 0.9086
vn 0.0873 -0.9767 0.1960
vn 0.3871 0.3070 0.8694
vn 0.1678 -0.9109 0.3768
vn 0.3529 0.4970 0.7927
vn 0.2409 -0.8057 0.5411
vn 0.3035 0.6657 0.6817
vn 0.3035 -0.6657 0.6817
vn 0.2409 0.8057 0.5411
vn 0.3529 -0.4970 0.7927
vn 0.1804 -0.4970 0.8488
vn 0.1551 -0.6657 0.7299
vn 0.0858 0.9109 0.4035
vn 0.1231 0.8057 0.5793
vn 0.1979 -0.3070 0.9309
vn 0.0446 0.9767 0.2098
vn 0.2068 -0.1038 0.9728
vn 0.2068 0.1038 0.9728
vn 0.0446 -0.9767 0.2098
vn 0.1979 0.3070 0.9309
vn 0.0858 -0.9109 0.4035
vn 0.1804 0.4970 0.8488
vn 0.1231 -0.8057 0.5793
vn 0.1551 0.6657 0.7299
usemtl Material.001
s 1
f 5/1/1 19/2/2 18/3/3 4/4/4
f 13/5/5 27/6/6 26/7/7 12/8/8
f 6/9/9 20/10/10 19/2/2 5/1/1
f 421/11/11 27/6/6 13/5/5
f 7/12/12 21/13/13 20/10/10 6/9/9
f 1/14/14 14/15/15 224/16/16
f 8/17/17 22/18/18 21/13/13 7/12/12
f 422/19/19 15/20/20 14/15/15 1/14/14
f 9/21/21 23/22/22 22/18/18 8/17/17
f 2/23/23 16/24/24 15/20/20 422/19/19
f 10/25/25 24/26/26 23/22/22 9/21/21
f 3/27/27 17/28/28 16/24/24 2/23/23
f 11/29/29 25/30/30 24/26/26 10/25/25
f 4/4/4 18/3/3 17/28/28 3/27/27
f 12/8/8 26/7/7 25/30/30 11/29/29
f 19/2/2 33/31/31 32/32/32 18/3/3
f 27/6/6 41/33/33 40/34/34 26/7/7
f 20/10/10 34/35/35 33/31/31 19/2/2
f 421/36/11 41/33/33 27/6/6
f 21/13/13 35/37/36 34/35/35 20/10/10
f 14/15/15 28/38/37 224/39/16
f 22/18/18 36/40/38 35/37/36 21/13/13
f 15/20/20 29/41/39 28/38/37 14/15/15
f 23/22/22 37/42/40 36/40/38 22/18/18
f 16/24/24 30/43/41 29/41/39 15/20/20
f 24/26/26 38/44/42 37/42/40 23/22/22
f 17/28/28 31/45/43 30/43/41 16/24/24
f 25/30/30 39/46/44 38/44/42 24/26/26
f 18/3/3 32/32/32 31/45/43 17/28/28
f 26/7/7 40/34/34 39/46/44 25/30/30
f 39/46/44 53/47/45 52/48/46 38/44/42
f 32/32/32 46/49/47 45/50/48 31/45/43
f 40/34/34 54/51/49 53/47/45 39/46/44
f 33/31/31 47/52/50 46/49/47 32/32/32
f 41/33/33 55/53/51 54/51/49 40/34/34
f 34/35/35 48/54/52 47/52/50 33/31/31
f 421/55/11 55/53/51 41/33/33
f 35/37/36 49/56/53 48/54/52 34/35/35
f 28/38/37 42/57/54 224/39/16
f 36/40/38 50/58/55 49/56/53 35/37/36
f 29/41/39 43/59/56 42/57/54 28/38/37
f 37/42/40 51/60/57 50/58/55 36/40/38
f 30/43/41 44/61/58 43/59/56 29/41/39
f 38/44/42 52/48/46 51/60/57 37/42/40
f 31/45/43 45/50/48 44/61/58 30/43/41
f 44/61/58 58/62/59 57/63/60 43/59/56
f 52/48/46 66/64/61 65/65/62 51/60/57
f 45/50/48 59/66/63 58/62/59 44/61/58
f 53/47/45 67/67/64 66/64/61 52/48/46
f 46/49/47 60/68/65 59/66/63 45/50/48
f 54/51/49 68/69/66 67/67/64 53/47/45
f 47/52/50 61/70/67 60/68/65 46/49/47
f 55/53/51 69/71/68 68/69/66 54/51/49
f 48/54/52 62/72/69 61/70/67 47/52/50
f 421/73/11 69/71/68 55/53/51
f 49/56/53 63/74/70 62/72/69 48/54/52
f 42/57/54 56/75/71 224/39/16
f 50/58/55 64/76/72 63/74/70 49/56/53
f 43/59/56 57/63/60 56/75/71 42/57/54
f 51/60/57 65/65/62 64/76/72 50/58/55
f 64/76/72 78/77/73 77/78/74 63/74/70
f 57/63/60 71/79/75 70/80/76 56/75/71
f 65/65/62 79/81/77 78/77/73 64/76/72
f 58/62/59 72/82/78 71/79/75 57/63/60
f 66/64/61 80/83/79 79/81/77 65/65/62
f 59/66/63 73/84/80 72/82/78 58/62/59
f 67/67/64 81/85/81 80/83/79 66/64/61
f 60/68/65 74/86/82 73/84/80 59/66/63
f 68/69/66 82/87/83 81/85/81 67/67/64
f 61/70/67 75/88/84 74/86/82 60/68/65
f 69/71/68 83/89/85 82/87/83 68/69/66
f 62/72/69 76/90/86 75/88/84 61/70/67
f 421/91/11 83/89/85 69/71/68
f 63/74/70 77/78/74 76/90/86 62/72/69
f 56/75/71 70/80/76 224/39/16
f 421/92/11 97/93/87 83/89/85
f 77/78/74 91/94/88 90/95/89 76/90/86
f 70/80/76 84/96/90 224/39/16
f 78/77/73 92/97/91 91/94/88 77/78/74
f 71/79/75 85/98/92 84/96/90 70/80/76
f 79/81/77 93/99/93 92/97/91 78/77/73
f 72/82/78 86/100/94 85/98/92 71/79/75
f 80/83/79 94/101/95 93/99/93 79/81/77
f 73/84/80 87/102/96 86/100/94 72/82/78
f 81/85/81 95/103/97 94/101/95 80/83/79
f 74/86/82 88/104/98 87/102/96 73/84/80
f 82/87/83 96/105/99 95/103/97 81/85/81
f 75/88/84 89/106/100 88/104/98 74/86/82
f 83/89/85 97/93/87 96/105/99 82/87/83
f 76/90/86 90/95/89 89/106/100 75/88/84
f 97/93/87 111/107/101 110/108/102 96/105/99
f 90/95/89 104/109/103 103/110/104 89/106/100
f 421/111/11 111/107/101 97/93/87
f 91/94/88 105/112/105 104/109/103 90/95/89
f 84/96/90 98/113/106 224/39/16
f 92/97/91 106/114/107 105/112/105 91/94/88
f 85/98/92 99/115/108 98/113/106 84/96/90
f 93/99/93 107/116/109 106/114/107 92/97/91
f 86/100/94 100/117/110 99/115/108 85/98/92
f 94/101/95 108/118/111 107/116/109 93/99/93
f 87/102/96 101/119/112 100/117/110 86/100/94
f 95/103/97 109/120/113 108/118/111 94/101/95
f 88/104/98 102/121/114 101/119/112 87/102/96
f 96/105/99 110/108/102 109/120/113 95/103/97
f 89/106/100 103/110/104 102/121/114 88/104/98
f 102/121/114 116/122/115 115/123/116 101/119/112
f 110/108/102 124/124/117 123/125/118 109/120/113
f 103/110/104 117/126/119 116/122/115 102/121/114
f 111/107/101 125/127/120 124/124/117 110/108/102
f 104/109/103 118/128/121 117/126/119 103/110/104
f 421/129/11 125/127/120 111/107/101
f 105/112/105 119/130/122 118/128/121 104/109/103
f 98/113/106 112/131/123 224/39/16
f 106/114/107 120/132/124 119/130/122 105/112/105
f 99/115/108 113/133/125 112/131/123 98/113/106
f 107/116/109 121/134/126 120/132/124 106/114/107
f 100/117/110 114/135/127 113/133/125 99/115/108
f 108/118/111 122/136/128 121/134/126 107/116/109
f 101/119/112 115/123/116 114/135/127 100/117/110
f 109/120/113 123/125/118 122/136/128 108/118/111
f 122/136/128 136/137/129 135/138/130 121/134/126
f 115/123/116 129/139/131 128/140/132 114/135/127
f 123/125/118 137/141/133 136/137/129 122/136/128
f 116/122/115 130/142/134 129/139/131 115/123/116
f 124/124/117 138/143/135 137/141/133 123/125/118
f 117/126/119 131/144/136 130/142/134 116/122/115
f 125/127/120 139/145/137 138/143/135 124/124/117
f 118/128/121 132/146/138 131/144/136 117/126/119
f 421/147/11 139/145/137 125/127/120
f 119/130/122 133/148/139 132/146/138 118/128/121
f 112/131/123 126/149/140 224/39/16
f 120/132/124 134/150/141 133/148/139 119/130/122
f 113/133/125 127/151/142 126/149/140 112/131/123
f 121/134/126 135/138/130 134/150/141 120/132/124
f 114/135/127 128/140/132 127/151/142 113/133/125
f 127/151/142 141/152/143 140/153/144 126/149/140
f 135/138/130 149/154/145 148/155/146 134/150/141
f 128/140/132 142/156/147 141/152/143 127/151/142
f 136/137/129 150/157/148 149/154/145 135/138/130
f 129/139/131 143/158/149 142/156/147 128/140/132
f 137/141/133 151/159/150 150/157/148 136/137/129
f 130/142/134 144/160/151 143/158/149 129/139/131
f 138/143/135 152/161/152 151/159/150 137/141/133
f 131/144/136 145/162/153 144/160/151 130/142/134
f 139/145/137 153/163/154 152/161/152 138/143/135
f 132/146/138 146/164/155 145/162/153 131/144/136
f 421/165/11 153/163/154 139/145/137
f 133/148/139 147/166/156 146/164/155 132/146/138
f 126/149/140 140/153/144 224/39/16
f 134/150/141 148/155/146 147/166/156 133/148/139
f 147/166/156 161/167/157 160/168/158 146/164/155
f 140/153/144 154/169/159 224/39/16
f 148/155/146 162/170/160 161/167/157 147/166/156
f 141/152/143 155/171/161 154/169/159 140/153/144
f 149/154/145 163/172/162 162/170/160 148/155/146
f 142/156/147 156/173/163 155/171/161 141/152/143
f 150/157/148 164/174/164 163/172/162 149/154/145
f 143/158/149 157/175/165 156/173/163 142/156/147
f 151/159/150 165/176/166 164/174/164 150/157/148
f 144/160/151 158/177/167 157/175/165 143/158/149
f 152/161/152 166/178/168 165/176/166 151/159/150
f 145/162/153 159/179/169 158/177/167 144/160/151
f 153/163/154 167/180/170 166/178/168 152/161/152
f 146/164/155 160/168/158 159/179/169 145/162/153
f 421/181/11 167/180/170 153/163/154
f 167/180/170 181/182/171 180/183/172 166/178/168
f 160/168/158 174/184/173 173/185/174 159/179/169
f 421/186/11 181/182/171 167/180/170
f 161/167/157 175/187/175 174/184/173 160/168/158
f 154/169/159 168/188/176 224/39/16
f 162/170/160 176/189/177 175/187/175 161/167/157
f 155/171/161 169/190/178 168/188/176 154/169/159
f 163/172/162 177/191/179 176/189/177 162/170/160
f 156/173/163 170/192/180 169/190/178 155/171/161
f 164/174/164 178/193/181 177/191/179 163/172/162
f 157/175/165 171/194/182 170/192/180 156/173/163
f 165/176/166 179/195/183 178/193/181 164/174/164
f 158/177/167 172/196/184 171/194/182 157/175/165
f 166/178/168 180/183/172 179/195/183 165/176/166
f 159/179/169 173/185/174 172/196/184 158/177/167
f 180/183/172 194/197/185 193/198/186 179/195/183
f 173/185/174 187/199/187 186/200/188 172/196/184
f 181/182/171 195/201/189 194/197/185 180/183/172
f 174/184/173 188/202/190 187/199/187 173/185/174
f 421/203/11 195/201/189 181/182/171
f 175/187/175 189/204/191 188/202/190 174/184/173
f 168/188/176 182/205/192 224/39/16
f 176/189/177 190/206/193 189/204/191 175/187/175
f 169/190/178 183/207/194 182/205/192 168/188/176
f 177/191/179 191/208/195 190/206/193 176/189/177
f 170/192/180 184/209/196 183/207/194 169/190/178
f 178/193/181 192/210/197 191/208/195 177/191/179
f 171/194/182 185/211/198 184/209/196 170/192/180
f 179/195/183 193/198/186 192/210/197 178/193/181
f 172/196/184 186/200/188 185/211/198 171/194/182
f 185/211/198 199/212/199 198/213/200 184/209/196
f 193/198/186 207/214/201 206/215/202 192/210/197
f 186/200/188 200/216/203 199/212/199 185/211/198
f 194/197/185 208/217/204 207/214/201 193/198/186
f 187/199/187 201/218/205 200/216/203 186/200/188
f 195/201/189 209/219/206 208/217/204 194/197/185
f 188/202/190 202/220/207 201/218/205 187/199/187
f 421/221/11 209/219/206 195/201/189
f 189/204/191 203/222/208 202/220/207 188/202/190
f 182/205/192 196/223/209 224/39/16
f 190/206/193 204/224/210 203/222/208 189/204/191
f 183/207/194 197/225/211 196/223/209 182/205/192
f 191/208/195 205/226/212 204/224/210 190/206/193
f 184/209/196 198/213/200 197/225/211 183/207/194
f 192/210/197 206/215/202 205/226/212 191/208/195
f 205/226/212 219/227/213 218/228/214 204/224/210
f 198/213/200 212/229/215 211/230/216 197/225/211
f 206/215/202 220/231/217 219/227/213 205/226/212
f 199/212/199 213/232/218 212/229/215 198/213/200
f 207/214/201 221/233/219 220/231/217 206/215/202
f 200/216/203 214/234/220 213/232/218 199/212/199
f 208/217/204 222/235/221 221/233/219 207/214/201
f 201/218/205 215/236/222 214/234/220 200/216/203
f 209/219/206 223/237/223 222/235/221 208/217/204
f 202/220/207 216/238/224 215/236/222 201/218/205
f 421/239/11 223/237/223 209/219/206
f 203/222/208 217/240/225 216/238/224 202/220/207
f 196/223/209 210/241/226 224/39/16
f 204/224/210 218/228/214 217/240/225 203/222/208
f 197/225/211 211/230/216 210/241/226 196/223/209
f 210/241/226 225/242/227 224/39/16
f 218/228/214 233/243/228 232/244/229 217/240/225
f 211/230/216 226/245/230 225/242/227 210/241/226
f 219/227/213 234/246/231 233/243/228 218/228/214
f 212/229/215 227/247/232 226/245/230 211/230/216
f 220/231/217 235/248/233 234/246/231 219/227/213
f 213/232/218 228/249/234 227/247/232 212/229/215
f 221/233/219 236/250/235 235/248/233 220/231/217
f 214/234/220 229/251/236 228/249/234 213/232/218
f 222/235/221 237/252/237 236/250/235 221/233/219
f 215/236/222 230/253/238 229/251/236 214/234/220
f 223/237/223 238/254/239 237/252/237 222/235/221
f 216/238/224 231/255/240 230/253/238 215/236/222
f 421/256/11 238/254/239 223/237/223
f 217/240/225 232/244/229 231/255/240 216/238/224
f 231/255/240 245/257/241 244/258/242 230/253/238
f 421/259/11 252/260/243 238/254/239
f 232/244/229 246/261/244 245/257/241 231/255/240
f 225/242/227 239/262/245 224/39/16
f 233/243/228 247/263/246 246/261/244 232/244/229
f 226/245/230 240/264/247 239/262/245 225/242/227
f 234/246/231 248/265/248 247/263/246 233/243/228
f 227/247/232 241/266/249 240/264/247 226/245/230
f 235/248/233 249/267/250 248/265/248 234/246/231
f 228/249/234 242/268/251 241/266/249 227/247/232
f 236/250/235 250/269/252 249/267/250 235/248/233
f 229/251/236 243/270/253 242/268/251 228/249/234
f 237/252/237 251/271/254 250/269/252 236/250/235
f 230/253/238 244/258/242 243/270/253 229/251/236
f 238/254/239 252/260/243 251/271/254 237/252/237
f 251/271/254 265/272/255 264/273/256 250/269/252
f 244/258/242 258/274/257 257/275/258 243/270/253
f 252/260/243 266/276/259 265/272/255 251/271/254
f 245/257/241 259/277/260 258/274/257 244/258/242
f 421/278/11 266/276/259 252/260/243
f 246/261/244 260/279/261 259/277/260 245/257/241
f 239/262/245 253/280/262 224/39/16
f 247/263/246 261/281/263 260/279/261 246/261/244
f 240/264/247 254/282/264 253/280/262 239/262/245
f 248/265/248 262/283/265 261/281/263 247/263/246
f 241/266/249 255/284/266 254/282/264 240/264/247
f 249/267/250 263/285/267 262/283/265 248/265/248
f 242/268/251 256/286/268 255/284/266 241/266/249
f 250/269/252 264/273/256 263/285/267 249/267/250
f 243/270/253 257/275/258 256/286/268 242/268/251
f 264/273/256 278/287/269 277/288/270 263/285/267
f 257/275/258 271/289/271 270/290/272 256/286/268
f 265/272/255 279/291/273 278/287/269 264/273/256
f 258/274/257 272/292/274 271/289/271 257/275/258
f 266/276/259 280/293/275 279/291/273 265/272/255
f 259/277/260 273/294/276 272/292/274 258/274/257
f 421/295/11 280/293/275 266/276/259
f 260/279/261 274/296/277 273/294/276 259/277/260
f 253/280/262 267/297/278 224/39/16
f 261/281/263 275/298/279 274/296/277 260/279/261
f 254/282/264 268/299/280 267/297/278 253/280/262
f 262/283/265 276/300/281 275/298/279 261/281/263
f 255/284/266 269/301/282 268/299/280 254/282/264
f 263/285/267 277/288/270 276/300/281 262/283/265
f 256/286/268 270/290/272 269/301/282 255/284/266
f 269/301/282 283/302/283 282/303/284 268/299/280
f 277/288/270 291/304/285 290/305/286 276/300/281
f 270/290/272 284/306/287 283/302/283 269/301/282
f 278/287/269 292/307/288 291/304/285 277/288/270
f 271/289/271 285/308/289 284/306/287 270/290/272
f 279/291/273 293/309/290 292/307/288 278/287/269
f 272/292/274 286/310/291 285/308/289 271/289/271
f 280/293/275 294/311/292 293/309/290 279/291/273
f 273/294/276 287/312/293 286/310/291 272/292/274
f 421/313/11 294/311/292 280/293/275
f 274/296/277 288/314/294 287/312/293 273/294/276
f 267/297/278 281/315/295 224/39/16
f 275/298/279 289/316/296 288/314/294 274/296/277
f 268/299/280 282/303/284 281/315/295 267/297/278
f 276/300/281 290/305/286 289/316/296 275/298/279
f 289/316/296 303/317/297 302/318/298 288/314/294
f 282/303/284 296/319/299 295/320/300 281/315/295
f 290/305/286 304/321/301 303/317/297 289/316/296
f 283/302/283 297/322/302 296/319/299 282/303/284
f 291/304/285 305/323/303 304/321/301 290/305/286
f 284/306/287 298/324/304 297/322/302 283/302/283
f 292/307/288 306/325/305 305/323/303 291/304/285
f 285/308/289 299/326/306 298/324/304 284/306/287
f 293/309/290 307/327/307 306/325/305 292/307/288
f 286/310/291 300/328/308 299/326/306 285/308/289
f 294/311/292 308/329/309 307/327/307 293/309/290
f 287/312/293 301/330/310 300/328/308 286/310/291
f 421/331/11 308/329/309 294/311/292
f 288/314/294 302/318/298 301/330/310 287/312/293
f 281/315/295 295/320/300 224/39/16
f 421/332/11 322/333/311 308/329/309
f 302/318/298 316/334/312 315/335/313 301/330/310
f 295/320/300 309/336/314 224/39/16
f 303/317/297 317/337/315 316/334/312 302/318/298
f 296/319/299 310/338/316 309/336/314 295/320/300
f 304/321/301 318/339/317 317/337/315 303/317/297
f 297/322/302 311/340/318 310/338/316 296/319/299
f 305/323/303 319/341/319 318/339/317 304/321/301
f 298/324/304 312/342/320 311/340/318 297/322/302
f 306/325/305 320/343/321 319/341/319 305/323/303
f 299/326/306 313/344/322 312/342/320 298/324/304
f 307/327/307 321/345/323 320/343/321 306/325/305
f 300/328/308 314/346/324 313/344/322 299/326/306
f 308/329/309 322/333/311 321/345/323 307/327/307
f 301/330/310 315/335/313 314/346/324 300/328/308
f 314/347/324 328/348/325 327/349/326 313/350/322
f 322/351/311 336/352/327 335/353/328 321/354/323
f 315/355/313 329/356/329 328/348/325 314/347/324
f 421/357/11 336/352/327 322/351/311
f 316/358/312 330/359/330 329/356/329 315/355/313
f 309/360/314 323/361/331 224/16/16
f 317/362/315 331/363/332 330/359/330 316/358/312
f 310/364/316 324/365/333 323/361/331 309/360/314
f 318/366/317 332/367/334 331/363/332 317/362/315
f 311/368/318 325/369/335 324/365/333 310/364/316
f 319/370/319 333/371/336 332/367/334 318/366/317
f 312/372/320 326/373/337 325/369/335 311/368/318
f 320/374/321 334/375/338 333/371/336 319/370/319
f 313/350/322 327/349/326 326/373/337 312/372/320
f 321/354/323 335/353/328 334/375/338 320/374/321
f 334/375/338 348/376/339 347/377/340 333/371/336
f 327/349/326 341/378/341 340/379/342 326/373/337
f 335/353/328 349/380/343 348/376/339 334/375/338
f 328/348/325 342/381/344 341/378/341 327/349/326
f 336/352/327 350/382/345 349/380/343 335/353/328
f 329/356/329 343/383/346 342/381/344 328/348/325
f 421/384/11 350/382/345 336/352/327
f 330/359/330 344/385/347 343/383/346 329/356/329
f 323/361/331 337/386/348 224/16/16
f 331/363/332 345/387/349 344/385/347 330/359/330
f 324/365/333 338/388/350 337/386/348 323/361/331
f 332/367/334 346/389/351 345/387/349 331/363/332
f 325/369/335 339/390/352 338/388/350 324/365/333
f 333/371/336 347/377/340 346/389/351 332/367/334
f 326/373/337 340/379/342 339/390/352 325/369/335
f 347/377/340 361/391/353 360/392/354 346/389/351
f 340/379/342 354/393/355 353/394/356 339/390/352
f 348/376/339 362/395/357 361/391/353 347/377/340
f 341/378/341 355/396/358 354/393/355 340/379/342
f 349/380/343 363/397/359 362/395/357 348/376/339
f 342/381/344 356/398/360 355/396/358 341/378/341
f 350/382/345 364/399/361 363/397/359 349/380/343
f 343/383/346 357/400/362 356/398/360 342/381/344
f 421/401/11 364/399/361 350/382/345
f 344/385/347 358/402/363 357/400/362 343/383/346
f 337/386/348 351/403/364 224/16/16
f 345/387/349 359/404/365 358/402/363 344/385/347
f 338/388/350 352/405/366 351/403/364 337/386/348
f 346/389/351 360/392/354 359/404/365 345/387/349
f 339/390/352 353/394/356 352/405/366 338/388/350
f 352/405/366 366/406/367 365/407/368 351/403/364
f 360/392/354 374/408/369 373/409/370 359/404/365
f 353/394/356 367/410/371 366/406/367 352/405/366
f 361/391/353 375/411/372 374/408/369 360/392/354
f 354/393/355 368/412/373 367/410/371 353/394/356
f 362/395/357 376/413/374 375/411/372 361/391/353
f 355/396/358 369/414/375 368/412/373 354/393/355
f 363/397/359 377/415/376 376/413/374 362/395/357
f 356/398/360 370/416/377 369/414/375 355/396/358
f 364/399/361 378/417/378 377/415/376 363/397/359
f 357/400/362 371/418/379 370/416/377 356/398/360
f 421/419/11 378/417/378 364/399/361
f 358/402/363 372/420/380 371/418/379 357/400/362
f 351/403/364 365/407/368 224/16/16
f 359/404/365 373/409/370 372/420/380 358/402/363
f 372/420/380 386/421/381 385/422/382 371/418/379
f 365/407/368 379/423/383 224/16/16
f 373/409/370 387/424/384 386/421/381 372/420/380
f 366/406/367 380/425/385 379/423/383 365/407/368
f 374/408/369 388/426/386 387/424/384 373/409/370
f 367/410/371 381/427/387 380/425/385 366/406/367
f 375/411/372 389/428/388 388/426/386 374/408/369
f 368/412/373 382/429/389 381/427/387 367/410/371
f 376/413/374 390/430/390 389/428/388 375/411/372
f 369/414/375 383/431/391 382/429/389 368/412/373
f 377/415/376 391/432/392 390/430/390 376/413/374
f 370/416/377 384/433/393 383/431/391 369/414/375
f 378/417/378 392/434/394 391/432/392 377/415/376
f 371/418/379 385/422/382 384/433/393 370/416/377
f 421/435/11 392/434/394 378/417/378
f 392/434/394 406/436/395 405/437/396 391/432/392
f 385/422/382 399/438/397 398/439/398 384/433/393
f 421/440/11 406/436/395 392/434/394
f 386/421/381 400/441/399 399/438/397 385/422/382
f 379/423/383 393/442/400 224/16/16
f 387/424/384 401/443/401 400/441/399 386/421/381
f 380/425/385 394/444/402 393/442/400 379/423/383
f 388/426/386 402/445/403 401/443/401 387/424/384
f 381/427/387 395/446/404 394/444/402 380/425/385
f 389/428/388 403/447/405 402/445/403 388/426/386
f 382/429/389 396/448/406 395/446/404 381/427/387
f 390/430/390 404/449/407 403/447/405 389/428/388
f 383/431/391 397/450/408 396/448/406 382/429/389
f 391/432/392 405/437/396 404/449/407 390/430/390
f 384/433/393 398/439/398 397/450/408 383/431/391
f 397/450/408 411/451/409 410/452/410 396/448/406
f 405/437/396 419/453/411 418/454/412 404/449/407
f 398/439/398 412/455/413 411/451/409 397/450/408
f 406/436/395 420/456/414 419/453/411 405/437/396
f 399/438/397 413/457/415 412/455/413 398/439/398
f 421/458/11 420/456/414 406/436/395
f 400/441/399 414/459/416 413/457/415 399/438/397
f 393/442/400 407/460/417 224/16/16
f 401/443/401 415/461/418 414/459/416 400/441/399
f 394/444/402 408/462/419 407/460/417 393/442/400
f 402/445/403 416/463/420 415/461/418 401/443/401
f 395/446/404 409/464/421 408/462/419 394/444/402
f 403/447/405 417/465/422 416/463/420 402/445/403
f 396/448/406 410/452/410 409/464/421 395/446/404
f 404/449/407 418/454/412 417/465/422 403/447/405
f 417/465/422 10/25/25 9/21/21 416/463/420
f 410/452/410 3/27/27 2/23/23 409/464/421
f 418/454/412 11/29/29 10/25/25 417/465/422
f 411/451/409 4/4/4 3/27/27 410/452/410
f 419/453/411 12/8/8 11/29/29 418/454/412
f 412/455/413 5/1/1 4/4/4 411/451/409
f 420/456/414 13/5/5 12/8/8 419/453/411
f 413/457/415 6/9/9 5/1/1 412/455/413
f 421/466/11 13/5/5 420/456/414
f 414/459/416 7/12/12 6/9/9 413/457/415
f 407/460/417 1/14/14 224/16/16
f 415/461/418 8/17/17 7/12/12 414/459/416
f 408/462/419 422/19/19 1/14/14 407/460/417
f 416/463/420 9/21/21 8/17/17 415/461/418
f 409/464/421 2/23/23 422/19/19 408/462/419
