# Blender MTL File: 'test.blend'
# Material Count: 1

newmtl FrontColor
Ns 575.999996
Ka 1.000000 1.000000 1.000000
Kd 0.288074 0.360606 1.000000
Ks 0.330000 0.330000 0.330000
Ke 0.000000 0.000000 0.000000
Ni 1.450000
d 1.000000
illum 2
